%!PS-Adobe-3.0 EPSF-3.0
%%Creator: cairo 1.8.8 (http://cairographics.org)
%%CreationDate: Mon Jan 25 09:35:17 2010
%%Pages: 1
%%BoundingBox: 0 0 172 124
%%DocumentData: Clean7Bit
%%LanguageLevel: 2
%%EndComments
%%BeginProlog
/cairo_eps_state save def
/dict_count countdictstack def
/op_count count 1 sub def
userdict begin
/q { gsave } bind def
/Q { grestore } bind def
/cm { 6 array astore concat } bind def
/w { setlinewidth } bind def
/J { setlinecap } bind def
/j { setlinejoin } bind def
/M { setmiterlimit } bind def
/d { setdash } bind def
/m { moveto } bind def
/l { lineto } bind def
/c { curveto } bind def
/h { closepath } bind def
/re { exch dup neg 3 1 roll 5 3 roll moveto 0 rlineto
      0 exch rlineto 0 rlineto closepath } bind def
/S { stroke } bind def
/f { fill } bind def
/f* { eofill } bind def
/B { fill stroke } bind def
/B* { eofill stroke } bind def
/n { newpath } bind def
/W { clip } bind def
/W* { eoclip } bind def
/BT { } bind def
/ET { } bind def
/pdfmark where { pop globaldict /?pdfmark /exec load put }
    { globaldict begin /?pdfmark /pop load def /pdfmark
    /cleartomark load def end } ifelse
/BDC { mark 3 1 roll /BDC pdfmark } bind def
/EMC { mark /EMC pdfmark } bind def
/cairo_store_point { /cairo_point_y exch def /cairo_point_x exch def } def
/Tj { show currentpoint cairo_store_point } bind def
/TJ {
  {
    dup
    type /stringtype eq
    { show } { -0.001 mul 0 cairo_font_matrix dtransform rmoveto } ifelse
  } forall
  currentpoint cairo_store_point
} bind def
/cairo_selectfont { cairo_font_matrix aload pop pop pop 0 0 6 array astore
    cairo_font exch selectfont cairo_point_x cairo_point_y moveto } bind def
/Tf { pop /cairo_font exch def /cairo_font_matrix where
      { pop cairo_selectfont } if } bind def
/Td { matrix translate cairo_font_matrix matrix concatmatrix dup
      /cairo_font_matrix exch def dup 4 get exch 5 get cairo_store_point
      /cairo_font where { pop cairo_selectfont } if } bind def
/Tm { 2 copy 8 2 roll 6 array astore /cairo_font_matrix exch def
      cairo_store_point /cairo_font where { pop cairo_selectfont } if } bind def
/g { setgray } bind def
/rg { setrgbcolor } bind def
/d1 { setcachedevice } bind def
%%EndProlog
%%Page: 1 1
%%BeginPageSetup
%%PageBoundingBox: 0 0 172 124
%%EndPageSetup
q
0 0.309804 0.25098 rg
10.98 56.355 m 5.43 56.355 0.926 52.058 0.926 46.769 c 0.926 43.937 l 
0.926 38.859 4.707 35.312 10.121 35.312 c 20.203 35.312 l 21.57 35.312 
22.957 34.495 22.957 32.925 c 22.957 30.316 l 22.957 28.847 21.527 
27.937 20.203 27.937 c 1.387 27.937 l 1.387 23.476 l 1.387 21.753 2.828 
20.499 4.805 20.499 c 21.523 20.499 l 27.121 20.499 31.664 24.808 
31.664 30.101 c 31.664 33.894 l 31.664 39.05 28.34 41.999 22.543 41.999 
c 12.543 41.999 l 10.805 41.999 9.633 42.894 9.633 44.238 c 9.633 
46.472 l 9.633 47.757 11.133 48.925 12.777 48.925 c 28.906 48.925 l 
28.906 53.39 l 28.906 55.249 27.816 56.355 25.984 56.355 c 10.98 56.355 
l f*
64.277 47.402 m 62.508 47.402 61.277 46.058 61.277 44.132 c 61.277 
30.995 l 61.277 29.304 59.828 27.937 58.055 27.937 c 49.062 27.937 l 
47.289 27.937 45.84 29.304 45.84 30.995 c 45.84 44.132 l 45.84 45.999 
43.82 47.402 42.016 47.402 c 40.215 47.402 l 38.445 47.402 37.207 
46.058 37.207 44.132 c 37.207 30.468 l 37.207 23.999 41.391 20.28 
48.672 20.28 c 49.848 20.28 l 53.246 20.28 56.059 21.687 58.109 22.718 
c 59.297 23.308 60.238 23.78 60.863 23.78 c 61.098 23.78 61.656 23.734 
61.949 23.308 c 63.996 20.499 l 66.801 20.499 l 69.078 20.499 69.906 
22.327 69.906 23.554 c 69.906 44.132 l 69.906 45.999 67.883 47.402 
66.078 47.402 c 64.277 47.402 l f*
85.699 56.355 m 80.156 56.355 75.641 52.058 75.641 46.769 c 75.641 
43.937 l 75.641 38.859 79.426 35.312 84.844 35.312 c 94.926 35.312 l 
96.293 35.312 97.68 34.495 97.68 32.925 c 97.68 30.316 l 97.68 28.847 
96.242 27.937 94.926 27.937 c 76.109 27.937 l 76.109 23.476 l 76.109 
21.753 77.547 20.499 79.527 20.499 c 96.246 20.499 l 101.836 20.499 
106.383 24.808 106.383 30.101 c 106.383 33.894 l 106.383 39.05 103.059 
41.999 97.262 41.999 c 87.262 41.999 l 85.523 41.999 84.355 42.894 
84.355 44.238 c 84.355 46.472 l 84.355 47.757 85.848 48.925 87.492 
48.925 c 104.039 48.925 l 104.039 53.39 l 104.039 55.14 102.672 56.355 
100.707 56.355 c 85.699 56.355 l f*
122.168 56.355 m 116.625 56.355 112.105 52.058 112.105 46.769 c 112.105 
30.101 l 112.105 24.808 116.625 20.499 122.168 20.499 c 136.23 20.499 l 
138.211 20.499 139.645 21.753 139.645 23.476 c 139.645 27.937 l 123.652 
27.937 l 121.941 27.937 120.738 29.07 120.738 30.698 c 120.738 35.238 l 
139.906 35.238 l 142.738 35.238 145.039 37.437 145.039 40.144 c 145.039 
46.769 l 145.039 52.058 140.531 56.355 134.984 56.355 c 122.168 56.355 
l 122.168 56.355 l h
120.738 46.245 m 120.738 47.73 122.016 48.925 123.574 48.925 c 133.57 
48.925 l 135.133 48.925 136.406 47.73 136.406 46.245 c 136.406 41.999 l 
120.738 41.999 l 120.738 46.245 l f*
0.45098 0.729412 0.145098 rg
156.941 99.382 m 156.941 99.382 l 153.645 99.503 151.055 102.284 
151.164 105.585 c 151.215 107.187 151.898 108.663 153.059 109.757 c 
154.227 110.847 155.75 111.413 157.348 111.355 c 160.652 111.238 
163.242 108.464 163.133 105.155 c 163.082 103.562 162.406 102.081 
161.242 100.988 c 160.07 99.898 158.547 99.331 156.941 99.382 c 156.941 
99.382 l h
158.328 104.808 m 159.797 104.808 160.988 105.601 160.988 106.577 c 
160.988 107.558 159.797 108.351 158.328 108.351 c 156.859 108.351 
155.676 107.558 155.676 106.577 c 155.676 105.601 156.859 104.808 
158.328 104.808 c f
87.973 64.214 m 88.188 64.234 l 88.223 64.491 l 88.168 64.691 88.039 
64.874 87.836 67.366 c 87.664 69.573 87.32 75.628 90.363 78.632 c 
91.547 79.8 93.352 80.843 94.773 81.179 c 100.613 82.605 108.191 81.616 
114.66 74.136 c 118 70.269 119.641 68.503 120.457 67.714 c 120.738 
67.452 l 121.082 67.206 l 121.348 67.058 132.203 62.058 132.203 62.058 
c 132.426 62.113 l 132.43 62.347 l 132.359 62.429 125.551 71.226 
126.758 78.468 c 127.715 84.241 132.309 83.722 138.66 82.999 c 140.738 
82.765 143.102 82.491 145.543 82.437 c 152.367 82.398 159.719 83.648 
164.246 85.628 c 167.18 86.909 169.051 87.757 170.223 88.823 c 170.645 
89.167 170.863 89.741 171.09 90.343 c 171.246 90.753 l 171.438 91.241 
171.715 92.284 171.836 92.855 c 171.891 93.105 171.914 93.378 171.738 
93.511 c 171.109 93.398 l 169.125 92.202 164.152 89.933 159.496 89.839 
c 153.73 89.722 142.105 95.644 140.891 96.273 c 140.777 96.405 l 
140.484 97.101 138.738 101.23 138.371 102.101 c 146.738 96.589 153.676 
93.542 158.992 93.07 c 164.906 92.542 169.516 95.769 171.488 97.148 c 
171.875 97.409 172.168 97.62 172.285 97.663 c 172.41 97.87 l 172.086 
99.948 168.992 110.003 166.66 112.417 c 166.012 113.081 165.492 113.726 
164.445 114.339 c 155.996 119.265 135.93 122.241 134.988 122.378 c 
134.828 122.331 l 134.766 122.191 l 134.766 122.191 134.691 118.03 
134.68 117.566 c 132.629 118.249 117.73 123.062 103.766 123.55 c 91.922 
123.964 75.746 124.53 52.891 110.48 c 52.215 110.058 l 41.465 103.351 
34.043 95.085 30.164 85.472 c 28.945 82.448 27.309 75.624 28.926 69.206 
c 29.629 66.394 30.934 63.577 32.691 61.054 c 36.66 55.355 43.324 
51.566 50.496 50.929 c 60.625 50.023 68.297 54.573 71.027 63.093 c 
72.902 68.968 71.027 77.593 63.836 81.991 c 57.988 85.577 51.691 84.757 
48.047 82.347 c 44.879 80.245 43.086 76.988 43.121 73.402 c 43.191 
67.054 48.668 63.675 52.598 63.667 c 53.746 63.667 54.891 63.866 56.188 
64.288 c 56.645 64.429 57.086 64.601 57.562 64.898 c 57.707 64.991 l 
57.805 65.046 l 57.77 65.03 l 58.668 65.636 59.211 66.632 59.211 67.695 
c 59.211 67.988 59.164 68.284 59.086 68.581 c 58.625 70.187 57.035 
71.159 55.387 70.859 c 55.164 70.812 l 54.863 70.714 l 54.426 70.566 l 
53.52 70.339 52.836 70.323 52.695 70.32 c 52.234 70.351 49.965 71.03 
49.965 73.511 c 49.965 73.542 l 49.969 74.452 50.336 75.093 50.539 
75.441 c 51.238 76.546 53.168 77.632 55.777 77.402 c 59.195 77.109 
61.66 75.355 63.293 72.046 c 64.812 68.968 64.414 65.187 62.273 62.409 
c 60.145 59.659 56.359 58.495 51.324 59.042 c 46.242 59.601 41.949 
62.523 39.547 67.073 c 37.195 71.519 37.062 76.792 39.211 80.843 c 
44.355 90.546 54.062 90.448 59.387 89.527 c 67.27 88.163 74.426 81.855 
77.609 73.464 c 78.117 72.124 78.379 71.066 78.605 70.097 c 78.945 
68.644 l 87.852 64.296 l 87.973 64.214 l 87.973 64.214 l h
151.266 111.581 m 151.266 111.581 l 149.586 110.023 148.625 107.894 
148.543 105.601 c 148.391 100.874 152.102 96.894 156.828 96.718 c 
159.129 96.64 161.312 97.452 162.984 99.019 c 164.66 100.585 165.621 
102.706 165.707 104.995 c 165.867 109.726 162.156 113.71 157.422 
113.882 c 155.125 113.956 152.938 113.148 151.266 111.581 c f*
7.941 1.351 m 7.32 3.089 l 4.379 3.089 l 3.781 1.351 l 2.094 1.351 l 
5.52 10.054 l 6.18 10.054 l 9.629 1.351 l 7.941 1.351 l h
5.848 7.429 m 4.812 4.253 l 6.875 4.253 l 5.848 7.429 l h
5.848 7.429 m f
26.332 1.241 m 22.156 6.663 l 22.156 1.351 l 20.695 1.351 l 20.695 
9.941 l 21.434 9.941 l 25.496 4.765 l 25.496 9.941 l 26.957 9.941 l 
26.957 1.238 l 26.332 1.238 l h
26.332 1.241 m f
31.906 5.718 m 31.906 6.941 32.238 7.976 32.91 8.82 c 33.578 9.667 
34.477 10.089 35.598 10.089 c 36.832 10.089 37.773 9.706 38.426 8.941 c 
39.078 8.175 39.406 7.101 39.406 5.718 c 39.406 4.335 39.062 3.234 
38.383 2.421 c 37.699 1.609 36.734 1.202 35.48 1.202 c 34.328 1.202 
33.441 1.605 32.828 2.409 c 32.211 3.214 31.906 4.316 31.906 5.718 c h
33.492 5.718 m 33.492 4.71 33.66 3.933 34 3.378 c 34.34 2.827 34.832 
2.554 35.48 2.554 c 36.238 2.554 36.82 2.823 37.219 3.363 c 37.617 
3.902 37.82 4.687 37.82 5.718 c 37.82 7.734 37.078 8.741 35.598 8.741 c 
34.918 8.741 34.398 8.468 34.035 7.921 c 33.676 7.374 33.492 6.64 
33.492 5.718 c h
33.492 5.718 m f
47.543 1.241 m 46.703 1.241 l 43.492 9.941 l 45.168 9.941 l 47.156 4.14 
l 49.254 9.941 l 50.891 9.941 l 47.543 1.241 l h
47.543 1.241 m f
56.926 8.589 m 56.926 6.577 l 59.688 6.577 l 59.688 5.277 l 56.926 
5.277 l 56.926 2.702 l 60.812 2.702 l 60.812 1.351 l 55.402 1.351 l 
55.402 9.937 l 60.812 9.937 l 60.812 8.589 l 56.926 8.589 l h
56.926 8.589 m f
65.828 1.351 m 65.828 9.941 l 67.352 9.941 l 67.352 2.702 l 71.227 
2.702 l 71.227 1.351 l 65.828 1.351 l h
65.828 1.351 m f
76.062 1.351 m 76.062 9.941 l 77.586 9.941 l 77.586 2.702 l 81.461 
2.702 l 81.461 1.351 l 76.062 1.351 l h
76.062 1.351 m f
95.691 1.351 m 93.062 1.351 l 93.062 9.933 l 94.219 9.988 95.031 10.015 
95.496 10.015 c 96.387 10.015 97.082 9.823 97.586 9.445 c 98.086 9.062 
98.336 8.519 98.336 7.808 c 98.336 7.128 97.98 6.593 97.262 6.195 c 
98.328 5.823 98.863 5.058 98.863 3.902 c 98.863 3.12 98.566 2.499 
97.977 2.042 c 97.387 1.581 96.625 1.351 95.691 1.351 c h
94.59 8.71 m 94.59 6.652 l 94.824 6.636 95.07 6.628 95.324 6.628 c 
96.316 6.628 96.812 7.003 96.812 7.749 c 96.812 8.409 96.363 8.741 
95.461 8.741 c 95.223 8.741 94.93 8.73 94.59 8.71 c h
94.59 5.46 m 94.59 2.632 l 94.898 2.605 95.145 2.589 95.336 2.589 c 
96.02 2.589 96.508 2.706 96.816 2.933 c 97.125 3.163 97.277 3.546 
97.277 4.081 c 97.277 4.566 97.133 4.921 96.848 5.144 c 96.562 5.366 
96.066 5.476 95.355 5.476 c 95.207 5.476 94.953 5.472 94.59 5.46 c h
94.59 5.46 m f
103.805 9.941 m 105.332 9.941 l 105.332 4.113 l 105.332 3.652 105.473 
3.277 105.754 2.988 c 106.031 2.698 106.418 2.554 106.91 2.554 c 
107.461 2.554 107.891 2.695 108.195 2.98 c 108.5 3.261 108.656 3.652 
108.656 4.144 c 108.656 9.941 l 110.18 9.941 l 110.18 4.03 l 110.18 
3.144 109.883 2.452 109.293 1.952 c 108.699 1.452 107.91 1.202 106.922 
1.202 c 105.926 1.202 105.156 1.448 104.617 1.937 c 104.074 2.425 
103.805 3.124 103.805 4.034 c 103.805 9.941 l h
103.805 9.941 m f
115.141 1.823 m 115.703 3.191 l 116.305 2.765 116.898 2.554 117.48 
2.554 c 118.379 2.554 118.828 2.866 118.828 3.488 c 118.828 3.78 
118.723 4.062 118.508 4.327 c 118.297 4.593 117.863 4.89 117.199 5.218 
c 116.539 5.55 116.098 5.82 115.867 6.034 c 115.637 6.245 115.461 6.499 
115.336 6.792 c 115.215 7.085 115.152 7.409 115.152 7.769 c 115.152 
8.433 115.398 8.984 115.883 9.421 c 116.371 9.859 116.996 10.077 
117.762 10.077 c 118.758 10.077 119.488 9.89 119.953 9.519 c 119.488 
8.202 l 118.953 8.585 118.383 8.777 117.789 8.777 c 117.438 8.777 
117.164 8.683 116.969 8.499 c 116.773 8.312 116.68 8.073 116.68 7.777 c 
116.68 7.284 117.223 6.773 118.316 6.241 c 118.891 5.96 119.305 5.702 
119.559 5.464 c 119.812 5.23 120.008 4.952 120.141 4.64 c 120.273 4.327 
120.34 3.976 120.34 3.589 c 120.34 2.894 120.066 2.323 119.52 1.874 c 
118.969 1.425 118.234 1.202 117.309 1.202 c 116.508 1.202 115.781 1.409 
115.141 1.823 c h
115.141 1.823 m f
125.312 1.351 m 125.312 9.941 l 126.836 9.941 l 126.836 1.351 l 125.312 
1.351 l h
125.312 1.351 m f
137.852 1.241 m 133.676 6.663 l 133.676 1.351 l 132.211 1.351 l 132.211 
9.941 l 132.949 9.941 l 137.012 4.765 l 137.012 9.941 l 138.477 9.941 l 
138.477 1.238 l 137.852 1.238 l h
137.852 1.241 m f
145.348 8.589 m 145.348 6.577 l 148.109 6.577 l 148.109 5.277 l 145.348 
5.277 l 145.348 2.702 l 149.234 2.702 l 149.234 1.351 l 143.824 1.351 l 
143.824 9.937 l 149.234 9.937 l 149.234 8.589 l 145.348 8.589 l h
145.348 8.589 m f
153.848 1.823 m 154.414 3.191 l 155.016 2.765 155.609 2.554 156.191 
2.554 c 157.09 2.554 157.539 2.866 157.539 3.488 c 157.539 3.78 157.434 
4.062 157.219 4.327 c 157.008 4.593 156.574 4.89 155.91 5.218 c 155.25 
5.55 154.805 5.82 154.578 6.034 c 154.348 6.245 154.172 6.499 154.047 
6.792 c 153.926 7.085 153.863 7.409 153.863 7.769 c 153.863 8.433 
154.105 8.984 154.594 9.421 c 155.082 9.859 155.707 10.077 156.473 
10.077 c 157.465 10.077 158.195 9.89 158.664 9.519 c 158.199 8.202 l 
157.66 8.585 157.094 8.777 156.5 8.777 c 156.148 8.777 155.875 8.683 
155.68 8.499 c 155.484 8.312 155.391 8.073 155.391 7.777 c 155.391 
7.284 155.934 6.773 157.027 6.241 c 157.602 5.96 158.016 5.702 158.27 
5.464 c 158.523 5.23 158.719 4.952 158.852 4.64 c 158.984 4.327 159.051 
3.976 159.051 3.589 c 159.051 2.894 158.777 2.323 158.23 1.874 c 157.68 
1.425 156.945 1.202 156.023 1.202 c 155.219 1.202 154.492 1.409 153.848 
1.823 c h
153.848 1.823 m f
163.586 1.823 m 164.148 3.191 l 164.75 2.765 165.344 2.554 165.926 
2.554 c 166.824 2.554 167.273 2.866 167.273 3.488 c 167.273 3.78 
167.164 4.062 166.953 4.327 c 166.742 4.593 166.305 4.89 165.645 5.218 
c 164.984 5.55 164.539 5.82 164.312 6.034 c 164.082 6.245 163.906 6.499 
163.781 6.792 c 163.66 7.085 163.598 7.409 163.598 7.769 c 163.598 
8.433 163.84 8.984 164.328 9.421 c 164.816 9.859 165.441 10.077 166.207 
10.077 c 167.199 10.077 167.93 9.89 168.398 9.519 c 167.934 8.202 l 
167.395 8.585 166.828 8.777 166.234 8.777 c 165.879 8.777 165.605 8.683 
165.414 8.499 c 165.219 8.312 165.125 8.073 165.125 7.777 c 165.125 
7.284 165.668 6.773 166.762 6.241 c 167.336 5.96 167.75 5.702 168.004 
5.464 c 168.258 5.23 168.453 4.952 168.586 4.64 c 168.719 4.327 168.785 
3.976 168.785 3.589 c 168.785 2.894 168.512 2.323 167.961 1.874 c 
167.414 1.425 166.676 1.202 165.754 1.202 c 164.953 1.202 164.23 1.409 
163.586 1.823 c h
163.586 1.823 m f
Q
showpage
%%Trailer
count op_count sub {pop} repeat
countdictstack dict_count sub {end} repeat
cairo_eps_state restore
%%EOF
